{
  "version": 2,
  "warnings": [
    {
      "code": "V1042",
      "cwe": 1177,
      "falseAlarm": false,
      "favorite": false,
      "level": 1,
      "message": "This file is marked with copyleft license, which requires you to open the derived source code.",
      "positions": [
        {
          "column": 1,
          "endColumn": 2147483647,
          "endLine": 6,
          "file": "/home/fuck/git/RVVM/src/blk_io.c",
          "line": 6,
          "navigation": {
            "columns": 0,
            "currentLine": -325608136,
            "nextLine": -977564788,
            "previousLine": 568921484
          }
        }
      ],
      "projects": [],
      "sastId": ""
    },
    {
      "code": "V1042",
      "cwe": 1177,
      "falseAlarm": false,
      "favorite": false,
      "level": 1,
      "message": "This file is marked with copyleft license, which requires you to open the derived source code.",
      "positions": [
        {
          "column": 1,
          "endColumn": 2147483647,
          "endLine": 7,
          "file": "/home/fuck/git/RVVM/src/cpu/riscv_a.c",
          "line": 7,
          "navigation": {
            "columns": 0,
            "currentLine": -325608136,
            "nextLine": -977564788,
            "previousLine": 568921484
          }
        }
      ],
      "projects": [],
      "sastId": ""
    },
    {
      "code": "V1042",
      "cwe": 1177,
      "falseAlarm": false,
      "favorite": false,
      "level": 1,
      "message": "This file is marked with copyleft license, which requires you to open the derived source code.",
      "positions": [
        {
          "column": 1,
          "endColumn": 2147483647,
          "endLine": 6,
          "file": "/home/fuck/git/RVVM/src/cpu/riscv_d.c",
          "line": 6,
          "navigation": {
            "columns": 0,
            "currentLine": -325608136,
            "nextLine": -977564788,
            "previousLine": 568921484
          }
        }
      ],
      "projects": [],
      "sastId": ""
    },
    {
      "code": "V1042",
      "cwe": 1177,
      "falseAlarm": false,
      "favorite": false,
      "level": 1,
      "message": "This file is marked with copyleft license, which requires you to open the derived source code.",
      "positions": [
        {
          "column": 1,
          "endColumn": 2147483647,
          "endLine": 7,
          "file": "/home/fuck/git/RVVM/src/cpu/riscv_c.c",
          "line": 7,
          "navigation": {
            "columns": 0,
            "currentLine": -325608136,
            "nextLine": -977564788,
            "previousLine": 568921484
          }
        }
      ],
      "projects": [],
      "sastId": ""
    },
    {
      "code": "V1042",
      "cwe": 1177,
      "falseAlarm": false,
      "favorite": false,
      "level": 1,
      "message": "This file is marked with copyleft license, which requires you to open the derived source code.",
      "positions": [
        {
          "column": 1,
          "endColumn": 2147483647,
          "endLine": 6,
          "file": "/home/fuck/git/RVVM/src/cpu/riscv_f.c",
          "line": 6,
          "navigation": {
            "columns": 0,
            "currentLine": -325608136,
            "nextLine": -977564788,
            "previousLine": 568921484
          }
        }
      ],
      "projects": [],
      "sastId": ""
    },
    {
      "code": "V1042",
      "cwe": 1177,
      "falseAlarm": false,
      "favorite": false,
      "level": 1,
      "message": "This file is marked with copyleft license, which requires you to open the derived source code.",
      "positions": [
        {
          "column": 1,
          "endColumn": 2147483647,
          "endLine": 6,
          "file": "/home/fuck/git/RVVM/src/devices/eth-oc.c",
          "line": 6,
          "navigation": {
            "columns": 0,
            "currentLine": -325608136,
            "nextLine": -977564788,
            "previousLine": 568921484
          }
        }
      ],
      "projects": [],
      "sastId": ""
    },
    {
      "code": "V1042",
      "cwe": 1177,
      "falseAlarm": false,
      "favorite": false,
      "level": 1,
      "message": "This file is marked with copyleft license, which requires you to open the derived source code.",
      "positions": [
        {
          "column": 1,
          "endColumn": 2147483647,
          "endLine": 6,
          "file": "/home/fuck/git/RVVM/src/devices/clint.c",
          "line": 6,
          "navigation": {
            "columns": 0,
            "currentLine": -325608136,
            "nextLine": -977564788,
            "previousLine": 568921484
          }
        }
      ],
      "projects": [],
      "sastId": ""
    },
    {
      "code": "V728",
      "cwe": 0,
      "falseAlarm": false,
      "favorite": false,
      "level": 2,
      "message": "An excessive check can be simplified. The '(A & ~B) | (~A & B)' expression is equivalent to the 'A ^ B' expression.",
      "positions": [
        {
          "column": 1,
          "endColumn": 2147483647,
          "endLine": 161,
          "file": "/home/fuck/git/RVVM/src/devices/ata.c",
          "line": 161,
          "navigation": {
            "columns": 0,
            "currentLine": 1603912479,
            "nextLine": 125,
            "previousLine": 565781512
          }
        }
      ],
      "projects": [],
      "sastId": ""
    },
    {
      "code": "V547",
      "cwe": 570,
      "falseAlarm": false,
      "favorite": false,
      "level": 2,
      "message": "Expression 'offset & ((1 << 0) - 1)' is always false.",
      "positions": [
        {
          "column": 1,
          "endColumn": 2147483647,
          "endLine": 379,
          "file": "/home/fuck/git/RVVM/src/devices/ata.c",
          "line": 379,
          "navigation": {
            "columns": 0,
            "currentLine": -1176924858,
            "nextLine": 559828,
            "previousLine": -1675723935
          }
        }
      ],
      "projects": [],
      "sastId": ""
    },
    {
      "code": "V547",
      "cwe": 570,
      "falseAlarm": false,
      "favorite": false,
      "level": 2,
      "message": "Expression 'offset & ((1 << 0) - 1)' is always false.",
      "positions": [
        {
          "column": 1,
          "endColumn": 2147483647,
          "endLine": 446,
          "file": "/home/fuck/git/RVVM/src/devices/ata.c",
          "line": 446,
          "navigation": {
            "columns": 0,
            "currentLine": -1176924858,
            "nextLine": 559828,
            "previousLine": -1675723935
          }
        }
      ],
      "projects": [],
      "sastId": ""
    },
    {
      "code": "V1042",
      "cwe": 1177,
      "falseAlarm": false,
      "favorite": false,
      "level": 1,
      "message": "This file is marked with copyleft license, which requires you to open the derived source code.",
      "positions": [
        {
          "column": 1,
          "endColumn": 2147483647,
          "endLine": 7,
          "file": "/home/fuck/git/RVVM/src/devices/ata.c",
          "line": 7,
          "navigation": {
            "columns": 0,
            "currentLine": -325608136,
            "nextLine": -977564788,
            "previousLine": 568921484
          }
        }
      ],
      "projects": [],
      "sastId": ""
    },
    {
      "code": "V1042",
      "cwe": 1177,
      "falseAlarm": false,
      "favorite": false,
      "level": 1,
      "message": "This file is marked with copyleft license, which requires you to open the derived source code.",
      "positions": [
        {
          "column": 1,
          "endColumn": 2147483647,
          "endLine": 7,
          "file": "/home/fuck/git/RVVM/src/cpu/riscv_m.c",
          "line": 7,
          "navigation": {
            "columns": 0,
            "currentLine": -325608136,
            "nextLine": -977564788,
            "previousLine": 568921484
          }
        }
      ],
      "projects": [],
      "sastId": ""
    },
    {
      "code": "V1042",
      "cwe": 1177,
      "falseAlarm": false,
      "favorite": false,
      "level": 1,
      "message": "This file is marked with copyleft license, which requires you to open the derived source code.",
      "positions": [
        {
          "column": 1,
          "endColumn": 2147483647,
          "endLine": 7,
          "file": "/home/fuck/git/RVVM/src/cpu/riscv_i.c",
          "line": 7,
          "navigation": {
            "columns": 0,
            "currentLine": -325608136,
            "nextLine": -977564788,
            "previousLine": 568921484
          }
        }
      ],
      "projects": [],
      "sastId": ""
    },
    {
      "code": "V1042",
      "cwe": 1177,
      "falseAlarm": false,
      "favorite": false,
      "level": 1,
      "message": "This file is marked with copyleft license, which requires you to open the derived source code.",
      "positions": [
        {
          "column": 1,
          "endColumn": 2147483647,
          "endLine": 6,
          "file": "/home/fuck/git/RVVM/src/devices/fb_window.c",
          "line": 6,
          "navigation": {
            "columns": 0,
            "currentLine": -325608136,
            "nextLine": -977564788,
            "previousLine": 568921484
          }
        }
      ],
      "projects": [],
      "sastId": ""
    },
    {
      "code": "V1042",
      "cwe": 1177,
      "falseAlarm": false,
      "favorite": false,
      "level": 1,
      "message": "This file is marked with copyleft license, which requires you to open the derived source code.",
      "positions": [
        {
          "column": 1,
          "endColumn": 2147483647,
          "endLine": 7,
          "file": "/home/fuck/git/RVVM/src/devices/ns16550a.c",
          "line": 7,
          "navigation": {
            "columns": 0,
            "currentLine": -325608136,
            "nextLine": -977564788,
            "previousLine": 568921484
          }
        }
      ],
      "projects": [],
      "sastId": ""
    },
    {
      "code": "V564",
      "cwe": 480,
      "falseAlarm": false,
      "favorite": false,
      "level": 1,
      "message": "The '|' operator is applied to bool type value. You've probably forgotten to include parentheses or intended to use the '||' operator.",
      "positions": [
        {
          "column": 1,
          "endColumn": 2147483647,
          "endLine": 165,
          "file": "/home/fuck/git/RVVM/src/devices/pci-bus.c",
          "line": 165,
          "navigation": {
            "columns": 0,
            "currentLine": -94849434,
            "nextLine": 2337,
            "previousLine": 23427997
          }
        }
      ],
      "projects": [],
      "sastId": "CERT-EXP46-C"
    },
    {
      "code": "V792",
      "cwe": 691,
      "falseAlarm": false,
      "favorite": false,
      "level": 1,
      "message": "The 'pci_bar_is_io' function located to the right of the operator '|' will be called regardless of the value of the left operand. Perhaps, it is better to use '||'.",
      "positions": [
        {
          "column": 1,
          "endColumn": 2147483647,
          "endLine": 165,
          "file": "/home/fuck/git/RVVM/src/devices/pci-bus.c",
          "line": 165,
          "navigation": {
            "columns": 0,
            "currentLine": -94849434,
            "nextLine": 2337,
            "previousLine": 23427997
          }
        }
      ],
      "projects": [],
      "sastId": ""
    },
    {
      "code": "V547",
      "cwe": 571,
      "falseAlarm": false,
      "favorite": false,
      "level": 2,
      "message": "Expression 'ecam' is always true.",
      "positions": [
        {
          "column": 1,
          "endColumn": 2147483647,
          "endLine": 332,
          "file": "/home/fuck/git/RVVM/src/devices/pci-bus.c",
          "line": 332,
          "navigation": {
            "columns": 0,
            "currentLine": -1599840134,
            "nextLine": -1876824270,
            "previousLine": 1889282473
          }
        }
      ],
      "projects": [],
      "sastId": ""
    },
    {
      "code": "V1042",
      "cwe": 1177,
      "falseAlarm": false,
      "favorite": false,
      "level": 1,
      "message": "This file is marked with copyleft license, which requires you to open the derived source code.",
      "positions": [
        {
          "column": 1,
          "endColumn": 2147483647,
          "endLine": 7,
          "file": "/home/fuck/git/RVVM/src/devices/pci-bus.c",
          "line": 7,
          "navigation": {
            "columns": 0,
            "currentLine": -325608136,
            "nextLine": -977564788,
            "previousLine": 568921484
          }
        }
      ],
      "projects": [],
      "sastId": ""
    },
    {
      "code": "V1042",
      "cwe": 1177,
      "falseAlarm": false,
      "favorite": false,
      "level": 1,
      "message": "This file is marked with copyleft license, which requires you to open the derived source code.",
      "positions": [
        {
          "column": 1,
          "endColumn": 2147483647,
          "endLine": 6,
          "file": "/home/fuck/git/RVVM/src/devices/ps2-altera.c",
          "line": 6,
          "navigation": {
            "columns": 0,
            "currentLine": -325608136,
            "nextLine": -977564788,
            "previousLine": 568921484
          }
        }
      ],
      "projects": [],
      "sastId": ""
    },
    {
      "code": "V1042",
      "cwe": 1177,
      "falseAlarm": false,
      "favorite": false,
      "level": 1,
      "message": "This file is marked with copyleft license, which requires you to open the derived source code.",
      "positions": [
        {
          "column": 1,
          "endColumn": 2147483647,
          "endLine": 6,
          "file": "/home/fuck/git/RVVM/src/devices/nvme.c",
          "line": 6,
          "navigation": {
            "columns": 0,
            "currentLine": -325608136,
            "nextLine": -977564788,
            "previousLine": 568921484
          }
        }
      ],
      "projects": [],
      "sastId": ""
    },
    {
      "code": "V1042",
      "cwe": 1177,
      "falseAlarm": false,
      "favorite": false,
      "level": 1,
      "message": "This file is marked with copyleft license, which requires you to open the derived source code.",
      "positions": [
        {
          "column": 1,
          "endColumn": 2147483647,
          "endLine": 6,
          "file": "/home/fuck/git/RVVM/src/devices/plic.c",
          "line": 6,
          "navigation": {
            "columns": 0,
            "currentLine": -325608136,
            "nextLine": -977564788,
            "previousLine": 568921484
          }
        }
      ],
      "projects": [],
      "sastId": ""
    },
    {
      "code": "V547",
      "cwe": 570,
      "falseAlarm": false,
      "favorite": false,
      "level": 2,
      "message": "Expression 'key->len * sizeof (key->keycode[0]) > 8' is always false.",
      "positions": [
        {
          "column": 1,
          "endColumn": 2147483647,
          "endLine": 314,
          "file": "/home/fuck/git/RVVM/src/devices/ps2-keyboard.c",
          "line": 314,
          "navigation": {
            "columns": 0,
            "currentLine": 701520056,
            "nextLine": 1629,
            "previousLine": 0
          }
        }
      ],
      "projects": [],
      "sastId": ""
    },
    {
      "code": "V1042",
      "cwe": 1177,
      "falseAlarm": false,
      "favorite": false,
      "level": 1,
      "message": "This file is marked with copyleft license, which requires you to open the derived source code.",
      "positions": [
        {
          "column": 1,
          "endColumn": 2147483647,
          "endLine": 6,
          "file": "/home/fuck/git/RVVM/src/devices/ps2-keyboard.c",
          "line": 6,
          "navigation": {
            "columns": 0,
            "currentLine": -325608136,
            "nextLine": -977564788,
            "previousLine": 568921484
          }
        }
      ],
      "projects": [],
      "sastId": ""
    },
    {
      "code": "V1042",
      "cwe": 1177,
      "falseAlarm": false,
      "favorite": false,
      "level": 1,
      "message": "This file is marked with copyleft license, which requires you to open the derived source code.",
      "positions": [
        {
          "column": 1,
          "endColumn": 2147483647,
          "endLine": 6,
          "file": "/home/fuck/git/RVVM/src/devices/rtc-goldfish.c",
          "line": 6,
          "navigation": {
            "columns": 0,
            "currentLine": -325608136,
            "nextLine": -977564788,
            "previousLine": 568921484
          }
        }
      ],
      "projects": [],
      "sastId": ""
    },
    {
      "code": "V1042",
      "cwe": 1177,
      "falseAlarm": false,
      "favorite": false,
      "level": 1,
      "message": "This file is marked with copyleft license, which requires you to open the derived source code.",
      "positions": [
        {
          "column": 1,
          "endColumn": 2147483647,
          "endLine": 6,
          "file": "/home/fuck/git/RVVM/src/devices/ps2-mouse.c",
          "line": 6,
          "navigation": {
            "columns": 0,
            "currentLine": -325608136,
            "nextLine": -977564788,
            "previousLine": 568921484
          }
        }
      ],
      "projects": [],
      "sastId": ""
    },
    {
      "code": "V1042",
      "cwe": 1177,
      "falseAlarm": false,
      "favorite": false,
      "level": 1,
      "message": "This file is marked with copyleft license, which requires you to open the derived source code.",
      "positions": [
        {
          "column": 1,
          "endColumn": 2147483647,
          "endLine": 6,
          "file": "/home/fuck/git/RVVM/src/devices/syscon.c",
          "line": 6,
          "navigation": {
            "columns": 0,
            "currentLine": -325608136,
            "nextLine": -977564788,
            "previousLine": 568921484
          }
        }
      ],
      "projects": [],
      "sastId": ""
    },
    {
      "code": "V1042",
      "cwe": 1177,
      "falseAlarm": false,
      "favorite": false,
      "level": 1,
      "message": "This file is marked with copyleft license, which requires you to open the derived source code.",
      "positions": [
        {
          "column": 1,
          "endColumn": 2147483647,
          "endLine": 6,
          "file": "/home/fuck/git/RVVM/src/elf_load.c",
          "line": 6,
          "navigation": {
            "columns": 0,
            "currentLine": -325608136,
            "nextLine": -977564788,
            "previousLine": 568921484
          }
        }
      ],
      "projects": [],
      "sastId": ""
    },
    {
      "code": "V1042",
      "cwe": 1177,
      "falseAlarm": false,
      "favorite": false,
      "level": 1,
      "message": "This file is marked with copyleft license, which requires you to open the derived source code.",
      "positions": [
        {
          "column": 1,
          "endColumn": 2147483647,
          "endLine": 6,
          "file": "/home/fuck/git/RVVM/src/gd32.c",
          "line": 6,
          "navigation": {
            "columns": 0,
            "currentLine": -325608136,
            "nextLine": -977564788,
            "previousLine": 568921484
          }
        }
      ],
      "projects": [],
      "sastId": ""
    },
    {
      "code": "V1042",
      "cwe": 1177,
      "falseAlarm": false,
      "favorite": false,
      "level": 1,
      "message": "This file is marked with copyleft license, which requires you to open the derived source code.",
      "positions": [
        {
          "column": 1,
          "endColumn": 2147483647,
          "endLine": 6,
          "file": "/home/fuck/git/RVVM/src/hashmap.c",
          "line": 6,
          "navigation": {
            "columns": 0,
            "currentLine": -325608136,
            "nextLine": -977564788,
            "previousLine": 568921484
          }
        }
      ],
      "projects": [],
      "sastId": ""
    },
    {
      "code": "V1042",
      "cwe": 1177,
      "falseAlarm": false,
      "favorite": false,
      "level": 1,
      "message": "This file is marked with copyleft license, which requires you to open the derived source code.",
      "positions": [
        {
          "column": 1,
          "endColumn": 2147483647,
          "endLine": 7,
          "file": "/home/fuck/git/RVVM/src/devices/x11window_xlib.c",
          "line": 7,
          "navigation": {
            "columns": 0,
            "currentLine": -325608136,
            "nextLine": -977564788,
            "previousLine": 568921484
          }
        }
      ],
      "projects": [],
      "sastId": ""
    },
    {
      "code": "V1042",
      "cwe": 1177,
      "falseAlarm": false,
      "favorite": false,
      "level": 1,
      "message": "This file is marked with copyleft license, which requires you to open the derived source code.",
      "positions": [
        {
          "column": 1,
          "endColumn": 2147483647,
          "endLine": 7,
          "file": "/home/fuck/git/RVVM/src/fdtlib.c",
          "line": 7,
          "navigation": {
            "columns": 0,
            "currentLine": -325608136,
            "nextLine": -977564788,
            "previousLine": 568921484
          }
        }
      ],
      "projects": [],
      "sastId": ""
    },
    {
      "code": "V1042",
      "cwe": 1177,
      "falseAlarm": false,
      "favorite": false,
      "level": 1,
      "message": "This file is marked with copyleft license, which requires you to open the derived source code.",
      "positions": [
        {
          "column": 1,
          "endColumn": 2147483647,
          "endLine": 7,
          "file": "/home/fuck/git/RVVM/src/ringbuf.c",
          "line": 7,
          "navigation": {
            "columns": 0,
            "currentLine": -325608136,
            "nextLine": -977564788,
            "previousLine": 568921484
          }
        }
      ],
      "projects": [],
      "sastId": ""
    },
    {
      "code": "V1042",
      "cwe": 1177,
      "falseAlarm": false,
      "favorite": false,
      "level": 1,
      "message": "This file is marked with copyleft license, which requires you to open the derived source code.",
      "positions": [
        {
          "column": 1,
          "endColumn": 2147483647,
          "endLine": 9,
          "file": "/home/fuck/git/RVVM/src/main.c",
          "line": 9,
          "navigation": {
            "columns": 0,
            "currentLine": -325608136,
            "nextLine": -977564788,
            "previousLine": 568921484
          }
        }
      ],
      "projects": [],
      "sastId": ""
    },
    {
      "code": "V1042",
      "cwe": 1177,
      "falseAlarm": false,
      "favorite": false,
      "level": 1,
      "message": "This file is marked with copyleft license, which requires you to open the derived source code.",
      "positions": [
        {
          "column": 1,
          "endColumn": 2147483647,
          "endLine": 7,
          "file": "/home/fuck/git/RVVM/src/riscv_cpu.c",
          "line": 7,
          "navigation": {
            "columns": 0,
            "currentLine": -325608136,
            "nextLine": -977564788,
            "previousLine": 568921484
          }
        }
      ],
      "projects": [],
      "sastId": ""
    },
    {
      "code": "V1042",
      "cwe": 1177,
      "falseAlarm": false,
      "favorite": false,
      "level": 1,
      "message": "This file is marked with copyleft license, which requires you to open the derived source code.",
      "positions": [
        {
          "column": 1,
          "endColumn": 2147483647,
          "endLine": 6,
          "file": "/home/fuck/git/RVVM/src/rvtimer.c",
          "line": 6,
          "navigation": {
            "columns": 0,
            "currentLine": -325608136,
            "nextLine": -977564788,
            "previousLine": 568921484
          }
        }
      ],
      "projects": [],
      "sastId": ""
    },
    {
      "code": "V522",
      "cwe": 690,
      "falseAlarm": false,
      "favorite": false,
      "level": 2,
      "message": "There might be dereferencing of a potential null pointer 'linked_blocks'. Check lines: 409, 408.",
      "positions": [
        {
          "column": 1,
          "endColumn": 2147483647,
          "endLine": 409,
          "file": "/home/fuck/git/RVVM/src/rvjit/rvjit.c",
          "line": 409,
          "navigation": {
            "columns": 0,
            "currentLine": -1302087633,
            "nextLine": 1205870600,
            "previousLine": -1935274477
          }
        },
        {
          "column": 1,
          "endColumn": 2147483647,
          "endLine": 408,
          "file": "/home/fuck/git/RVVM/src/rvjit/rvjit.c",
          "line": 408
        }
      ],
      "projects": [],
      "sastId": "CERT-MEM52-CPP"
    },
    {
      "code": "V530",
      "cwe": 252,
      "falseAlarm": false,
      "favorite": false,
      "level": 1,
      "message": "The return value of function 'mmap' is required to be utilized.",
      "positions": [
        {
          "column": 1,
          "endColumn": 2147483647,
          "endLine": 463,
          "file": "/home/fuck/git/RVVM/src/rvjit/rvjit.c",
          "line": 463,
          "navigation": {
            "columns": 0,
            "currentLine": 1765801660,
            "nextLine": 125,
            "previousLine": -462592870
          }
        }
      ],
      "projects": [],
      "sastId": "CERT-EXP12-C"
    },
    {
      "code": "V1042",
      "cwe": 1177,
      "falseAlarm": false,
      "favorite": false,
      "level": 1,
      "message": "This file is marked with copyleft license, which requires you to open the derived source code.",
      "positions": [
        {
          "column": 1,
          "endColumn": 2147483647,
          "endLine": 6,
          "file": "/home/fuck/git/RVVM/src/rvjit/rvjit.c",
          "line": 6,
          "navigation": {
            "columns": 0,
            "currentLine": -325608136,
            "nextLine": -977564788,
            "previousLine": 568921484
          }
        }
      ],
      "projects": [],
      "sastId": ""
    },
    {
      "code": "V1037",
      "cwe": 691,
      "falseAlarm": false,
      "favorite": false,
      "level": 2,
      "message": "Two or more case-branches perform the same actions. Check lines: 414, 427",
      "positions": [
        {
          "column": 1,
          "endColumn": 2147483647,
          "endLine": 414,
          "file": "/home/fuck/git/RVVM/src/riscv_csr.c",
          "line": 414,
          "navigation": {
            "columns": 0,
            "currentLine": 1094702961,
            "nextLine": 2337,
            "previousLine": 70728
          }
        },
        {
          "column": 1,
          "endColumn": 2147483647,
          "endLine": 427,
          "file": "/home/fuck/git/RVVM/src/riscv_csr.c",
          "line": 427
        }
      ],
      "projects": [],
      "sastId": ""
    },
    {
      "code": "V1042",
      "cwe": 1177,
      "falseAlarm": false,
      "favorite": false,
      "level": 1,
      "message": "This file is marked with copyleft license, which requires you to open the derived source code.",
      "positions": [
        {
          "column": 1,
          "endColumn": 2147483647,
          "endLine": 7,
          "file": "/home/fuck/git/RVVM/src/riscv_csr.c",
          "line": 7,
          "navigation": {
            "columns": 0,
            "currentLine": -325608136,
            "nextLine": -977564788,
            "previousLine": 568921484
          }
        }
      ],
      "projects": [],
      "sastId": ""
    },
    {
      "code": "V1042",
      "cwe": 1177,
      "falseAlarm": false,
      "favorite": false,
      "level": 1,
      "message": "This file is marked with copyleft license, which requires you to open the derived source code.",
      "positions": [
        {
          "column": 1,
          "endColumn": 2147483647,
          "endLine": 6,
          "file": "/home/fuck/git/RVVM/src/riscv_hart.c",
          "line": 6,
          "navigation": {
            "columns": 0,
            "currentLine": -325608136,
            "nextLine": -977564788,
            "previousLine": 568921484
          }
        }
      ],
      "projects": [],
      "sastId": ""
    },
    {
      "code": "V1037",
      "cwe": 691,
      "falseAlarm": false,
      "favorite": false,
      "level": 2,
      "message": "Two or more case-branches perform the same actions. Check lines: 114, 117",
      "positions": [
        {
          "column": 1,
          "endColumn": 2147483647,
          "endLine": 114,
          "file": "/home/fuck/git/RVVM/src/riscv_priv.c",
          "line": 114,
          "navigation": {
            "columns": 0,
            "currentLine": -374588586,
            "nextLine": 5607,
            "previousLine": -1954156484
          }
        },
        {
          "column": 1,
          "endColumn": 2147483647,
          "endLine": 117,
          "file": "/home/fuck/git/RVVM/src/riscv_priv.c",
          "line": 117
        }
      ],
      "projects": [],
      "sastId": ""
    },
    {
      "code": "V1042",
      "cwe": 1177,
      "falseAlarm": false,
      "favorite": false,
      "level": 1,
      "message": "This file is marked with copyleft license, which requires you to open the derived source code.",
      "positions": [
        {
          "column": 1,
          "endColumn": 2147483647,
          "endLine": 6,
          "file": "/home/fuck/git/RVVM/src/riscv_priv.c",
          "line": 6,
          "navigation": {
            "columns": 0,
            "currentLine": -325608136,
            "nextLine": -977564788,
            "previousLine": 568921484
          }
        }
      ],
      "projects": [],
      "sastId": ""
    },
    {
      "code": "V1042",
      "cwe": 1177,
      "falseAlarm": false,
      "favorite": false,
      "level": 1,
      "message": "This file is marked with copyleft license, which requires you to open the derived source code.",
      "positions": [
        {
          "column": 1,
          "endColumn": 2147483647,
          "endLine": 6,
          "file": "/home/fuck/git/RVVM/src/riscv_mmu.c",
          "line": 6,
          "navigation": {
            "columns": 0,
            "currentLine": -325608136,
            "nextLine": -977564788,
            "previousLine": 568921484
          }
        }
      ],
      "projects": [],
      "sastId": ""
    },
    {
      "code": "V1042",
      "cwe": 1177,
      "falseAlarm": false,
      "favorite": false,
      "level": 1,
      "message": "This file is marked with copyleft license, which requires you to open the derived source code.",
      "positions": [
        {
          "column": 1,
          "endColumn": 2147483647,
          "endLine": 6,
          "file": "/home/fuck/git/RVVM/src/spinlock.c",
          "line": 6,
          "navigation": {
            "columns": 0,
            "currentLine": -325608136,
            "nextLine": -977564788,
            "previousLine": 568921484
          }
        }
      ],
      "projects": [],
      "sastId": ""
    },
    {
      "code": "V1042",
      "cwe": 1177,
      "falseAlarm": false,
      "favorite": false,
      "level": 1,
      "message": "This file is marked with copyleft license, which requires you to open the derived source code.",
      "positions": [
        {
          "column": 1,
          "endColumn": 2147483647,
          "endLine": 6,
          "file": "/home/fuck/git/RVVM/src/threading.c",
          "line": 6,
          "navigation": {
            "columns": 0,
            "currentLine": -325608136,
            "nextLine": -977564788,
            "previousLine": 568921484
          }
        }
      ],
      "projects": [],
      "sastId": ""
    },
    {
      "code": "V1048",
      "cwe": 1164,
      "falseAlarm": false,
      "favorite": false,
      "level": 2,
      "message": "The 'code[0]' variable was assigned the same value.",
      "positions": [
        {
          "column": 1,
          "endColumn": 2147483647,
          "endLine": 822,
          "file": "/home/fuck/git/RVVM/src/rvjit/rvjit_x86.h",
          "line": 822,
          "navigation": {
            "columns": 0,
            "currentLine": 1119849,
            "nextLine": 278537,
            "previousLine": 622637409
          }
        }
      ],
      "projects": [],
      "sastId": ""
    },
    {
      "code": "V1048",
      "cwe": 1164,
      "falseAlarm": false,
      "favorite": false,
      "level": 2,
      "message": "The 'code[0]' variable was assigned the same value.",
      "positions": [
        {
          "column": 1,
          "endColumn": 2147483647,
          "endLine": 830,
          "file": "/home/fuck/git/RVVM/src/rvjit/rvjit_x86.h",
          "line": 830,
          "navigation": {
            "columns": 0,
            "currentLine": 1119849,
            "nextLine": 1119807,
            "previousLine": -427429217
          }
        }
      ],
      "projects": [],
      "sastId": ""
    },
    {
      "code": "V560",
      "cwe": 570,
      "falseAlarm": false,
      "favorite": false,
      "level": 2,
      "message": "A part of conditional expression is always false: s2_reg == hrs2.",
      "positions": [
        {
          "column": 1,
          "endColumn": 2147483647,
          "endLine": 968,
          "file": "/home/fuck/git/RVVM/src/rvjit/rvjit_x86.h",
          "line": 968,
          "navigation": {
            "columns": 0,
            "currentLine": 1009072284,
            "nextLine": 440907056,
            "previousLine": 1942943
          }
        }
      ],
      "projects": [],
      "sastId": ""
    },
    {
      "code": "V1042",
      "cwe": 1177,
      "falseAlarm": false,
      "favorite": false,
      "level": 1,
      "message": "This file is marked with copyleft license, which requires you to open the derived source code.",
      "positions": [
        {
          "column": 1,
          "endColumn": 2147483647,
          "endLine": 6,
          "file": "/home/fuck/git/RVVM/src/rvjit/rvjit_emit.c",
          "line": 6,
          "navigation": {
            "columns": 0,
            "currentLine": -325608136,
            "nextLine": -977564788,
            "previousLine": 568921484
          }
        }
      ],
      "projects": [],
      "sastId": ""
    },
    {
      "code": "V1071",
      "cwe": 0,
      "falseAlarm": false,
      "favorite": false,
      "level": 2,
      "message": "Consider inspecting the 'rvjit_x86_branch' function. The return value is not always used. Total calls: 14, discarded results: 1.",
      "positions": [
        {
          "column": 1,
          "endColumn": 2147483647,
          "endLine": 866,
          "file": "/home/fuck/git/RVVM/src/rvjit/rvjit_x86.h",
          "line": 866,
          "navigation": {
            "columns": 0,
            "currentLine": -919387857,
            "nextLine": 123,
            "previousLine": 0
          }
        },
        {
          "column": 1,
          "endColumn": 2147483647,
          "endLine": 1058,
          "file": "/home/fuck/git/RVVM/src/rvjit/rvjit_x86.h",
          "line": 1058
        }
      ],
      "projects": [],
      "sastId": ""
    },
    {
      "code": "V1042",
      "cwe": 1177,
      "falseAlarm": false,
      "favorite": false,
      "level": 1,
      "message": "This file is marked with copyleft license, which requires you to open the derived source code.",
      "positions": [
        {
          "column": 1,
          "endColumn": 2147483647,
          "endLine": 6,
          "file": "/home/fuck/git/RVVM/src/utils.c",
          "line": 6,
          "navigation": {
            "columns": 0,
            "currentLine": -325608136,
            "nextLine": -977564788,
            "previousLine": 568921484
          }
        }
      ],
      "projects": [],
      "sastId": ""
    },
    {
      "code": "V1042",
      "cwe": 1177,
      "falseAlarm": false,
      "favorite": false,
      "level": 1,
      "message": "This file is marked with copyleft license, which requires you to open the derived source code.",
      "positions": [
        {
          "column": 1,
          "endColumn": 2147483647,
          "endLine": 6,
          "file": "/home/fuck/git/RVVM/src/rvvm.c",
          "line": 6,
          "navigation": {
            "columns": 0,
            "currentLine": -325608136,
            "nextLine": -977564788,
            "previousLine": 568921484
          }
        }
      ],
      "projects": [],
      "sastId": ""
    }
  ]
}
