Гео - земля,
тригоно - треугольник,
метрия - измерение,
графия - описание.

География - описание земли, землеописание.
Геометрия - измерение земли.
Тригонометрия - измерение треугольников.

В треугольниках, где нет угла 90 градусов, все стороны
не имеют названия. В прямоугольном же треугольнике,
стороны прилежащие к углу 90 градусов называются катетами,
а противолежащая ему сторона -- гипотенузой.

  |\             |\
  | \            |α\
a |  \ c       a |  \ c
  |   \          |   \
  |    \         |    \
  |____α\        |_____\
    b              b

 sin(α) = a / c  sin(α) = b / c
 cos(α) = b / c  cos(α) = a / c
 tg(α) = a / b   tg(α) = b / a
 ctg(α) = b / a  ctg(α) = a / b

Синус и три другие функции выше - отношения длин сторон треугольников.
